Functions and iteration
…
## [[1]]
## # A tibble: 1 x 2
##   X1    X2   
##   <lgl> <lgl>
## 1 NA    NA   
## 
## [[2]]
## # A tibble: 1 x 11
##   X1     X2     X3     X4     X5    X6    X7    X8    X9    X10  
##   <chr>  <chr>  <chr>  <chr>  <chr> <chr> <chr> <chr> <chr> <chr>
## 1 Avalo… Docum… Ancie… Medie… 15th… 16th… 17th… 18th… 19th… 20th…
## # … with 1 more variable: X11 <chr>
## 
## [[3]]
## # A tibble: 38 x 5
##   X1                X2       X3       X4       X5      
##   <chr>             <chr>    <chr>    <chr>    <chr>   
## 1 President         1st Term 2nd Term 3rd Term 4th Term
## 2 George Washington 1789     1793     <NA>     <NA>    
## 3 John Adams        1797     <NA>     <NA>     <NA>    
## 4 Thomas Jefferson  1801     1805     <NA>     <NA>    
## 5 James Madison     1809     1813     <NA>     <NA>    
## 6 James Monroe      1817     1821     <NA>     <NA>    
## # … with 32 more rows
## 
## [[4]]
…
---

## Scrape main page

### Fixing up our table

```r
# our table is the third element of the table list
inaug_table <- tables[[3]]

inaug_table
```

```
## # A tibble: 38 x 5
##   X1                X2       X3       X4       X5      
##   <chr>             <chr>    <chr>    <chr>    <chr>   
## 1 President         1st Term 2nd Term 3rd Term 4th Term
## 2 George Washington 1789     1793     <NA>     <NA>    
## 3 John Adams        1797     <NA>     <NA>     <NA>    
## 4 Thomas Jefferson  1801     1805     <NA>     <NA>    
## 5 James Madison     1809     1813     <NA>     <NA>    
## 6 James Monroe      1817     1821     <NA>     <NA>    
## # … with 32 more rows
```
…
### Fixing up our table

```r
# the colnames of the name are in the first row
colnames(inaug_table) <- inaug_table[1,]

# now we can get rid of that first row
inaug_table <- inaug_table[-1,]

inaug_table
```

```
## # A tibble: 37 x 5
##   President         `1st Term` `2nd Term` `3rd Term` `4th Term`
##   <chr>             <chr>      <chr>      <chr>      <chr>     
## 1 George Washington 1789       1793       <NA>       <NA>      
## 2 John Adams        1797       <NA>       <NA>       <NA>      
## 3 Thomas Jefferson  1801       1805       <NA>       <NA>      
## 4 James Madison     1809       1813       <NA>       <NA>      
## 5 James Monroe      1817       1821       <NA>       <NA>      
## 6 John Quincy Adams 1825       <NA>       <NA>       <NA>      
## # … with 31 more rows
```
…
Finally, we can make it `tidy`

```r
inaug_table <- inaug_table %>%
  pivot_longer(cols = -President, # cols with data are all except President
               names_to = "Term", # change names to "Term" 
               values_to = "Year") %>% # change values to "Year"
  filter(!is.na(Year))

inaug_table
```

```
## # A tibble: 55 x 3
##   President         Term     Year 
##   <chr>             <chr>    <chr>
## 1 George Washington 1st Term 1789 
## 2 George Washington 2nd Term 1793 
## 3 John Adams        1st Term 1797 
## 4 Thomas Jefferson  1st Term 1801 
## 5 Thomas Jefferson  2nd Term 1805 
## 6 James Madison     1st Term 1809 
## # … with 49 more rows
```
…
## Scrape main page

### Joining it all together

What should we join by? 

.pull-left[

```r
inaug_table
```

```
## # A tibble: 55 x 3
##   President         Term     Year 
##   <chr>             <chr>    <chr>
## 1 George Washington 1st Term 1789 
## 2 George Washington 2nd Term 1793 
## 3 John Adams        1st Term 1797 
## 4 Thomas Jefferson  1st Term 1801 
## 5 Thomas Jefferson  2nd Term 1805 
## 6 James Madison     1st Term 1809 
## # … with 49 more rows
```
…
---

## Scrape main page

### Joining it all together

```r
inaug_table <- left_join(x = inaug_table,
                         y = elements_tib, 
                         by = c("Year" = "year"))
inaug_table
```

```
## # A tibble: 55 x 4
##   President         Term     Year  link                        
##   <chr>             <chr>    <chr> <chr>                       
## 1 George Washington 1st Term 1789  ../18th_century/wash1.asp   
## 2 George Washington 2nd Term 1793  ../18th_century/wash2.asp   
## 3 John Adams        1st Term 1797  ../18th_century/adams.asp   
## 4 Thomas Jefferson  1st Term 1801  ../19th_century/jefinau1.asp
## 5 Thomas Jefferson  2nd Term 1805  ../19th_century/jefinau2.asp
## 6 James Madison     1st Term 1809  ../19th_century/madison1.asp
## # … with 49 more rows
```
…
### One last thing... 

We need to make the link a full link to the other sites

```r
inaug_table <- inaug_table %>%
  mutate(link = str_remove(string = link, pattern = "../")) %>%
  mutate(full_link = 
           paste("https://avalon.law.yale.edu/",link,sep=""))
inaug_table
```

```
## # A tibble: 55 x 5
##   President    Term    Year  link        full_link               
##   <chr>        <chr>   <chr> <chr>       <chr>                   
## 1 George Wash… 1st Te… 1789  18th_centu… https://avalon.law.yale…
## 2 George Wash… 2nd Te… 1793  18th_centu… https://avalon.law.yale…
## 3 John Adams   1st Te… 1797  18th_centu… https://avalon.law.yale…
## 4 Thomas Jeff… 1st Te… 1801  19th_centu… https://avalon.law.yale…
## 5 Thomas Jeff… 2nd Te… 1805  19th_centu… https://avalon.law.yale…
## 6 James Madis… 1st Te… 1809  19th_centu… https://avalon.law.yale…
## # … with 49 more rows
```
…
--

```r
inaug_table
```

```
## # A tibble: 55 x 6
##   President   Term   Year  link    full_link       speech        
##   <chr>       <chr>  <chr> <chr>   <chr>           <chr>         
## 1 George Was… 1st T… 1789  18th_c… https://avalon… " Fellow-Citi…
## 2 George Was… 2nd T… 1793  18th_c… https://avalon… "Fellow Citiz…
## 3 John Adams  1st T… 1797  18th_c… https://avalon… "When it was …
## 4 Thomas Jef… 1st T… 1801  19th_c… https://avalon… " Called upon…
## 5 Thomas Jef… 2nd T… 1805  19th_c… https://avalon… " Proceeding,…
## 6 James Madi… 1st T… 1809  19th_c… https://avalon… "March 4, 180…
## # … with 49 more rows
```
…
inaug_table %>%
  select(President,Term,speech) %>%
  unnest_tokens(word, speech) %>%
  anti_join(stop_words) %>%
  group_by(President, Term) %>%
  summarize(total_words = n()) %>%
  arrange(desc(total_words)) -> 
  inaug_length

inaug_length
```

```
## # A tibble: 55 x 3
## # Groups:   President [37]
##   President              Term     total_words
##   <chr>                  <chr>          <int>
## 1 William Henry Harrison 1st Term        2943
## 2 William Howard Taft    1st Term        2047
## 3 James Polk             1st Term        1847
## 4 Benjamin Harrison      1st Term        1673
## 5 James Monroe           2nd Term        1577
## 6 William McKinley       1st Term        1496
## # … with 49 more rows
```
…
