Code-along COVID19
…
COVID_data <- read_csv(file = "data/us-states.csv")

## 
## ── Column specification ────────────────────────────────────────────────────────
## cols(
##   date = col_date(format = ""),
##   state = col_character(),
##   fips = col_character(),
##   cases = col_double(),
##   deaths = col_double()
## )

COVID_data

## # A tibble: 20,749 x 5
##    date       state      fips  cases deaths
##    <date>     <chr>      <chr> <dbl>  <dbl>
##  1 2020-01-21 Washington 53        1      0
##  2 2020-01-22 Washington 53        1      0
##  3 2020-01-23 Washington 53        1      0
##  4 2020-01-24 Illinois   17        1      0
##  5 2020-01-24 Washington 53        1      0
##  6 2020-01-25 California 06        1      0
##  7 2020-01-25 Illinois   17        1      0
##  8 2020-01-25 Washington 53        1      0
##  9 2020-01-26 Arizona    04        1      0
## 10 2020-01-26 California 06        2      0
## # … with 20,739 more rows
…
