Data types, classes, and data recoding
…
# Why should you care about data types?

---

## Example: Cat lovers

A survey asked respondents their name and number of cats. The instructions said to enter the number of cats as a numerical value.

```r
cat_lovers <- read_csv("data/cat-lovers.csv")
```

```
## # A tibble: 60 x 3
##   name           number_of_cats handedness
##   <chr>          <chr>          <chr>     
## 1 Bernice Warren 0              left      
## 2 Woodrow Stone  0              left      
## 3 Willie Bass    1              left      
## 4 Tyrone Estrada 3              left      
## 5 Alex Daniels   3              left      
## 6 Jane Bates     2              left      
## # … with 54 more rows
```
…
---

.question[
Calculate and visualize the number of bookings on any given arrival date.
]

```r
hotels %>%
  select(starts_with("arrival_"))
```

```
## # A tibble: 119,390 x 4
##   arrival_date_ye… arrival_date_mo… arrival_date_we…
##              <dbl> <chr>                       <dbl>
## 1             2015 July                           27
## 2             2015 July                           27
## 3             2015 July                           27
## 4             2015 July                           27
## 5             2015 July                           27
## 6             2015 July                           27
## # … with 119,384 more rows, and 1 more variable:
## #   arrival_date_day_of_month <dbl>
```
…
---

## Step 2. Count bookings per date

.midi[

```r
hotels %>%
  mutate(arrival_date = glue("{arrival_date_year} {arrival_date_month} {arrival_date_day_of_month}")) %>%
  count(arrival_date)
```

```
## # A tibble: 793 x 2
##   arrival_date       n
## * <glue>         <int>
## 1 2015 August 1    110
## 2 2015 August 10   207
## 3 2015 August 11   117
## 4 2015 August 12   133
## 5 2015 August 13   107
## 6 2015 August 14   329
## # … with 787 more rows
```
…
## Step 2. Count bookings per date

.midi[

```r
hotels %>%
  mutate(arrival_date = lubridate::ymd(
    glue("{arrival_date_year} {arrival_date_month} {arrival_date_day_of_month}")
  )) %>% 
  count(arrival_date)
```

```
## # A tibble: 793 x 2
##   arrival_date     n
## * <date>       <int>
## 1 2015-07-01     122
## 2 2015-07-02      93
## 3 2015-07-03      56
## 4 2015-07-04      88
## 5 2015-07-05      53
## 6 2015-07-06      75
## # … with 787 more rows
```
…
---

## Read data 

```r
library(readxl)
rel_inc <- read_excel("data/relig-income.xlsx")
```

```r
rel_inc
```

```
## # A tibble: 12 x 6
##   `Religious trad… `Less than $30,… `$30,000-$49,99…
##   <chr>                       <dbl>            <dbl>
## 1 Buddhist                     0.36             0.18
## 2 Catholic                     0.36             0.19
## 3 Evangelical Pro…             0.35             0.22
## 4 Hindu                        0.17             0.13
## 5 Historically Bl…             0.53             0.22
## 6 Jehovah's Witne…             0.48             0.25
## # … with 6 more rows, and 3 more variables:
## #   `$50,000-$99,999` <dbl>, `$100,000 or more` <dbl>, `Sample
## #   Size` <dbl>
```
…
## Rename columns

.midi[

```r
rel_inc %>%
  rename( 
    religion = `Religious tradition`, 
    n = `Sample Size` 
  ) 
```

```
## # A tibble: 12 x 6
##   religion `Less than $30,… `$30,000-$49,99… `$50,000-$99,99…
##   <chr>               <dbl>            <dbl>            <dbl>
## 1 Buddhist             0.36             0.18             0.32
## 2 Catholic             0.36             0.19             0.26
## 3 Evangel…             0.35             0.22             0.28
## 4 Hindu                0.17             0.13             0.34
## 5 Histori…             0.53             0.22             0.17
## 6 Jehovah…             0.48             0.25             0.22
## # … with 6 more rows, and 2 more variables: `$100,000 or
## #   more` <dbl>, n <dbl>
```
]

---

.question[
If we want a new variable called `income` with levels such as "Less than $30,000", "$30,000-$49,999", ... etc. which function should we use?
]

```
## # A tibble: 48 x 4
##    religion                   n income            proportion
##    <chr>                  <dbl> <chr>                  <dbl>
##  1 Buddhist                 233 Less than $30,000       0.36
##  2 Buddhist                 233 $30,000-$49,999         0.18
##  3 Buddhist                 233 $50,000-$99,999         0.32
##  4 Buddhist                 233 $100,000 or more        0.13
##  5 Catholic                6137 Less than $30,000       0.36
##  6 Catholic                6137 $30,000-$49,999         0.19
##  7 Catholic                6137 $50,000-$99,999         0.26
##  8 Catholic                6137 $100,000 or more        0.19
##  9 Evangelical Protestant  7462 Less than $30,000       0.35
## 10 Evangelical Protestant  7462 $30,000-$49,999         0.22
## 11 Evangelical Protestant  7462 $50,000-$99,999         0.28
## 12 Evangelical Protestant  7462 $100,000 or more        0.14
## 13 Hindu                    172 Less than $30,000       0.17
## 14 Hindu                    172 $30,000-$49,999         0.13
## 15 Hindu                    172 $50,000-$99,999         0.34
## # … with 33 more rows
```
…
```
## # A tibble: 48 x 4
##   religion     n income            proportion
##   <chr>    <dbl> <chr>                  <dbl>
## 1 Buddhist   233 Less than $30,000       0.36
## 2 Buddhist   233 $30,000-$49,999         0.18
## 3 Buddhist   233 $50,000-$99,999         0.32
## 4 Buddhist   233 $100,000 or more        0.13
## 5 Catholic  6137 Less than $30,000       0.36
## 6 Catholic  6137 $30,000-$49,999         0.19
## # … with 42 more rows
```
…
```
## # A tibble: 48 x 5
##   religion     n income            proportion frequency
##   <chr>    <dbl> <chr>                  <dbl>     <dbl>
## 1 Buddhist   233 Less than $30,000       0.36        84
## 2 Buddhist   233 $30,000-$49,999         0.18        42
## 3 Buddhist   233 $50,000-$99,999         0.32        75
## 4 Buddhist   233 $100,000 or more        0.13        30
## 5 Catholic  6137 Less than $30,000       0.36      2209
## 6 Catholic  6137 $30,000-$49,999         0.19      1166
## # … with 42 more rows
```
…
