Some handy R tips
…
---

.question[Why does this code **not** do what we intend?]

```r
starwars %>%
  mutate(BMI = mass/height) %>%
  select(name, height, mass, BMI)
```

```
## # A tibble: 87 × 4
##   name           height  mass   BMI
##   <chr>           <int> <dbl> <dbl>
## 1 Luke Skywalker    172    77 0.448
## 2 C-3PO             167    75 0.449
## 3 R2-D2              96    32 0.333
## 4 Darth Vader       202   136 0.673
## 5 Leia Organa       150    49 0.327
## 6 Owen Lars         178   120 0.674
## # … with 81 more rows
```
…
